…
``` r
# Select the relevant columns, filter to the year 2000 and after 
# Order the results by free throw percentage and then by player

seasons_stats %>%
  select(Year, Player, `FT%`) %>% 
  filter(Year >= 2000) %>%
  arrange(desc(`FT%`)) %>% 
  arrange((Player)) %>%
  top_n(10)
```

    ## Selecting by FT%

    ## # A tibble: 313 × 3
    ##     Year Player           `FT%`
    ##    <dbl> <chr>            <dbl>
    ##  1  2006 Aaron Miles          1
    ##  2  2003 Adam Harrington      1
    ##  3  2014 Adonis Thomas        1
    ##  4  2014 Adonis Thomas        1
    ##  5  2008 Adrian Griffin       1
    ##  6  2015 Alex Kirk            1
    ##  7  2006 Amir Johnson         1
    ##  8  2006 Andre Barrett        1
    ##  9  2009 Andre Brown          1
    ## 10  2017 Andrew Nicholson     1
    ## # … with 303 more rows
…
